…
The raw data describes victim name, race, age, sex, location of
homicide, and whether an arrest was made.

``` r
homicides = homicides |> 
  mutate(city_state = paste(city, state, sep = ", ")) |> 
  group_by(city_state) 
```

``` r
homicides |> 
  summarize(count = n())
## # A tibble: 51 × 2
##    city_state      count
##    <chr>           <int>
##  1 Albuquerque, NM   378
##  2 Atlanta, GA       973
##  3 Baltimore, MD    2827
##  4 Baton Rouge, LA   424
##  5 Birmingham, AL    800
##  6 Boston, MA        614
##  7 Buffalo, NY       521
##  8 Charlotte, NC     687
##  9 Chicago, IL      5535
## 10 Cincinnati, OH    694
## # ℹ 41 more rows
```

There are 52179 homicides from 2010 to 2016.

``` r
homicides |> 
  filter(disposition == "Closed without arrest" | disposition == "Open/No arrest") |> 
  summarize(count = n())
## # A tibble: 50 × 2
##    city_state      count
##    <chr>           <int>
##  1 Albuquerque, NM   146
##  2 Atlanta, GA       373
##  3 Baltimore, MD    1825
##  4 Baton Rouge, LA   196
##  5 Birmingham, AL    347
##  6 Boston, MA        310
##  7 Buffalo, NY       319
##  8 Charlotte, NC     206
##  9 Chicago, IL      4073
## 10 Cincinnati, OH    309
## # ℹ 40 more rows
```
…
